EESchema Schematic File Version 2
LIBS:power
LIBS:device
LIBS:switches
LIBS:relays
LIBS:motors
LIBS:transistors
LIBS:conn
LIBS:linear
LIBS:regul
LIBS:74xx
LIBS:cmos4000
LIBS:adc-dac
LIBS:memory
LIBS:xilinx
LIBS:microcontrollers
LIBS:dsp
LIBS:microchip
LIBS:analog_switches
LIBS:motorola
LIBS:texas
LIBS:intel
LIBS:audio
LIBS:interface
LIBS:digital-audio
LIBS:philips
LIBS:display
LIBS:cypress
LIBS:siliconi
LIBS:opto
LIBS:atmel
LIBS:contrib
LIBS:valves
EELAYER 25 0
EELAYER END
$Descr A4 11693 8268
encoding utf-8
Sheet 1 1
Title ""
Date ""
Rev ""
Comp ""
Comment1 ""
Comment2 ""
Comment3 ""
Comment4 ""
$EndDescr
$Comp
L L L1
U 1 1 5A1CAF10
P 700 1450
F 0 "L1" V 650 1450 50  0000 C CNN
F 1 "10mH" V 775 1450 50  0000 C CNN
F 2 "" H 700 1450 50  0001 C CNN
F 3 "" H 700 1450 50  0001 C CNN
	1    700  1450
	1    0    0    -1  
$EndComp
$Comp
L GND #PWR01
U 1 1 5A1CAFA5
P 700 1600
F 0 "#PWR01" H 700 1350 50  0001 C CNN
F 1 "GND" H 700 1450 50  0000 C CNN
F 2 "" H 700 1600 50  0001 C CNN
F 3 "" H 700 1600 50  0001 C CNN
	1    700  1600
	1    0    0    -1  
$EndComp
$Comp
L C C1
U 1 1 5A1CAFBB
P 1100 1450
F 0 "C1" H 1125 1550 50  0000 L CNN
F 1 "3.3nF" H 1125 1350 50  0000 L CNN
F 2 "" H 1138 1300 50  0001 C CNN
F 3 "" H 1100 1450 50  0001 C CNN
	1    1100 1450
	1    0    0    -1  
$EndComp
$Comp
L GND #PWR02
U 1 1 5A1CAFF5
P 1100 1600
F 0 "#PWR02" H 1100 1350 50  0001 C CNN
F 1 "GND" H 1100 1450 50  0000 C CNN
F 2 "" H 1100 1600 50  0001 C CNN
F 3 "" H 1100 1600 50  0001 C CNN
	1    1100 1600
	1    0    0    -1  
$EndComp
$Comp
L MCP6004 U1
U 1 1 5A1CB021
P 1750 1300
F 0 "U1" H 1750 1500 50  0000 L CNN
F 1 "MCP6004" H 1750 1100 50  0000 L CNN
F 2 "" H 1700 1400 50  0001 C CNN
F 3 "" H 1800 1500 50  0001 C CNN
	1    1750 1300
	1    0    0    -1  
$EndComp
$Comp
L R R2
U 1 1 5A1CB067
P 1700 1900
F 0 "R2" V 1780 1900 50  0000 C CNN
F 1 "18k" V 1700 1900 50  0000 C CNN
F 2 "" V 1630 1900 50  0001 C CNN
F 3 "" H 1700 1900 50  0001 C CNN
	1    1700 1900
	0    1    1    0   
$EndComp
$Comp
L GND #PWR03
U 1 1 5A1CB0CE
P 1650 1600
F 0 "#PWR03" H 1650 1350 50  0001 C CNN
F 1 "GND" H 1650 1450 50  0000 C CNN
F 2 "" H 1650 1600 50  0001 C CNN
F 3 "" H 1650 1600 50  0001 C CNN
	1    1650 1600
	1    0    0    -1  
$EndComp
$Comp
L +3.3V #PWR04
U 1 1 5A1CB0EA
P 1650 1000
F 0 "#PWR04" H 1650 850 50  0001 C CNN
F 1 "+3.3V" H 1650 1140 50  0000 C CNN
F 2 "" H 1650 1000 50  0001 C CNN
F 3 "" H 1650 1000 50  0001 C CNN
	1    1650 1000
	1    0    0    -1  
$EndComp
$Comp
L R R1
U 1 1 5A1CB138
P 1400 2150
F 0 "R1" V 1480 2150 50  0000 C CNN
F 1 "1.8k" V 1400 2150 50  0000 C CNN
F 2 "" V 1330 2150 50  0001 C CNN
F 3 "" H 1400 2150 50  0001 C CNN
	1    1400 2150
	1    0    0    -1  
$EndComp
$Comp
L GND #PWR05
U 1 1 5A1CB198
P 1400 2300
F 0 "#PWR05" H 1400 2050 50  0001 C CNN
F 1 "GND" H 1400 2150 50  0000 C CNN
F 2 "" H 1400 2300 50  0001 C CNN
F 3 "" H 1400 2300 50  0001 C CNN
	1    1400 2300
	1    0    0    -1  
$EndComp
Wire Wire Line
	700  1200 1450 1200
Connection ~ 1100 1200
Wire Wire Line
	1550 1900 1400 1900
Wire Wire Line
	1400 1400 1400 2000
Wire Wire Line
	1400 1400 1450 1400
Connection ~ 1400 1900
$Comp
L MCP6004 U1
U 2 1 5A1CB38F
P 3000 1400
F 0 "U1" H 3000 1600 50  0000 L CNN
F 1 "MCP6004" H 3000 1200 50  0000 L CNN
F 2 "" H 2950 1500 50  0001 C CNN
F 3 "" H 3050 1600 50  0001 C CNN
	2    3000 1400
	1    0    0    -1  
$EndComp
$Comp
L R R4
U 1 1 5A1CB395
P 2950 2000
F 0 "R4" V 3030 2000 50  0000 C CNN
F 1 "18k" V 2950 2000 50  0000 C CNN
F 2 "" V 2880 2000 50  0001 C CNN
F 3 "" H 2950 2000 50  0001 C CNN
	1    2950 2000
	0    1    1    0   
$EndComp
$Comp
L GND #PWR06
U 1 1 5A1CB39B
P 2900 1700
F 0 "#PWR06" H 2900 1450 50  0001 C CNN
F 1 "GND" H 2900 1550 50  0000 C CNN
F 2 "" H 2900 1700 50  0001 C CNN
F 3 "" H 2900 1700 50  0001 C CNN
	1    2900 1700
	1    0    0    -1  
$EndComp
$Comp
L +3.3V #PWR07
U 1 1 5A1CB3A1
P 2900 1100
F 0 "#PWR07" H 2900 950 50  0001 C CNN
F 1 "+3.3V" H 2900 1240 50  0000 C CNN
F 2 "" H 2900 1100 50  0001 C CNN
F 3 "" H 2900 1100 50  0001 C CNN
	1    2900 1100
	1    0    0    -1  
$EndComp
$Comp
L R R3
U 1 1 5A1CB3A7
P 2650 2250
F 0 "R3" V 2730 2250 50  0000 C CNN
F 1 "1.8k" V 2650 2250 50  0000 C CNN
F 2 "" V 2580 2250 50  0001 C CNN
F 3 "" H 2650 2250 50  0001 C CNN
	1    2650 2250
	1    0    0    -1  
$EndComp
$Comp
L GND #PWR08
U 1 1 5A1CB3AD
P 2650 2400
F 0 "#PWR08" H 2650 2150 50  0001 C CNN
F 1 "GND" H 2650 2250 50  0000 C CNN
F 2 "" H 2650 2400 50  0001 C CNN
F 3 "" H 2650 2400 50  0001 C CNN
	1    2650 2400
	1    0    0    -1  
$EndComp
Wire Wire Line
	2800 2000 2650 2000
Wire Wire Line
	2650 1500 2650 2100
Wire Wire Line
	2650 1500 2700 1500
Connection ~ 2650 2000
$Comp
L MCP6004 U1
U 3 1 5A1CB5CE
P 4350 1500
F 0 "U1" H 4350 1700 50  0000 L CNN
F 1 "MCP6004" H 4350 1300 50  0000 L CNN
F 2 "" H 4300 1600 50  0001 C CNN
F 3 "" H 4400 1700 50  0001 C CNN
	3    4350 1500
	1    0    0    -1  
$EndComp
$Comp
L R R6
U 1 1 5A1CB5D4
P 4300 2100
F 0 "R6" V 4380 2100 50  0000 C CNN
F 1 "18k" V 4300 2100 50  0000 C CNN
F 2 "" V 4230 2100 50  0001 C CNN
F 3 "" H 4300 2100 50  0001 C CNN
	1    4300 2100
	0    1    1    0   
$EndComp
$Comp
L GND #PWR09
U 1 1 5A1CB5DA
P 4250 1800
F 0 "#PWR09" H 4250 1550 50  0001 C CNN
F 1 "GND" H 4250 1650 50  0000 C CNN
F 2 "" H 4250 1800 50  0001 C CNN
F 3 "" H 4250 1800 50  0001 C CNN
	1    4250 1800
	1    0    0    -1  
$EndComp
$Comp
L +3.3V #PWR010
U 1 1 5A1CB5E0
P 4250 1200
F 0 "#PWR010" H 4250 1050 50  0001 C CNN
F 1 "+3.3V" H 4250 1340 50  0000 C CNN
F 2 "" H 4250 1200 50  0001 C CNN
F 3 "" H 4250 1200 50  0001 C CNN
	1    4250 1200
	1    0    0    -1  
$EndComp
$Comp
L R R5
U 1 1 5A1CB5E6
P 4000 2350
F 0 "R5" V 4080 2350 50  0000 C CNN
F 1 "1.8k" V 4000 2350 50  0000 C CNN
F 2 "" V 3930 2350 50  0001 C CNN
F 3 "" H 4000 2350 50  0001 C CNN
	1    4000 2350
	1    0    0    -1  
$EndComp
$Comp
L GND #PWR011
U 1 1 5A1CB5EC
P 4000 2500
F 0 "#PWR011" H 4000 2250 50  0001 C CNN
F 1 "GND" H 4000 2350 50  0000 C CNN
F 2 "" H 4000 2500 50  0001 C CNN
F 3 "" H 4000 2500 50  0001 C CNN
	1    4000 2500
	1    0    0    -1  
$EndComp
Wire Wire Line
	4150 2100 4000 2100
Wire Wire Line
	4000 1600 4000 2200
Wire Wire Line
	4000 1600 4050 1600
Connection ~ 4000 2100
$Comp
L MCP6004 U1
U 4 1 5A1CB967
P 5550 1600
F 0 "U1" H 5550 1800 50  0000 L CNN
F 1 "MCP6004" H 5550 1400 50  0000 L CNN
F 2 "" H 5500 1700 50  0001 C CNN
F 3 "" H 5600 1800 50  0001 C CNN
	4    5550 1600
	1    0    0    -1  
$EndComp
$Comp
L R R8
U 1 1 5A1CB96D
P 5500 2200
F 0 "R8" V 5580 2200 50  0000 C CNN
F 1 "18k" V 5500 2200 50  0000 C CNN
F 2 "" V 5430 2200 50  0001 C CNN
F 3 "" H 5500 2200 50  0001 C CNN
	1    5500 2200
	0    1    1    0   
$EndComp
$Comp
L GND #PWR012
U 1 1 5A1CB973
P 5450 1900
F 0 "#PWR012" H 5450 1650 50  0001 C CNN
F 1 "GND" H 5450 1750 50  0000 C CNN
F 2 "" H 5450 1900 50  0001 C CNN
F 3 "" H 5450 1900 50  0001 C CNN
	1    5450 1900
	1    0    0    -1  
$EndComp
$Comp
L +3.3V #PWR013
U 1 1 5A1CB979
P 5450 1300
F 0 "#PWR013" H 5450 1150 50  0001 C CNN
F 1 "+3.3V" H 5450 1440 50  0000 C CNN
F 2 "" H 5450 1300 50  0001 C CNN
F 3 "" H 5450 1300 50  0001 C CNN
	1    5450 1300
	1    0    0    -1  
$EndComp
$Comp
L R R7
U 1 1 5A1CB97F
P 5200 2450
F 0 "R7" V 5280 2450 50  0000 C CNN
F 1 "2.7k" V 5200 2450 50  0000 C CNN
F 2 "" V 5130 2450 50  0001 C CNN
F 3 "" H 5200 2450 50  0001 C CNN
	1    5200 2450
	1    0    0    -1  
$EndComp
$Comp
L GND #PWR014
U 1 1 5A1CB985
P 5200 2600
F 0 "#PWR014" H 5200 2350 50  0001 C CNN
F 1 "GND" H 5200 2450 50  0000 C CNN
F 2 "" H 5200 2600 50  0001 C CNN
F 3 "" H 5200 2600 50  0001 C CNN
	1    5200 2600
	1    0    0    -1  
$EndComp
Wire Wire Line
	5350 2200 5200 2200
Wire Wire Line
	5200 1700 5200 2300
Wire Wire Line
	5200 1700 5250 1700
Connection ~ 5200 2200
Wire Wire Line
	2050 1300 2700 1300
Wire Wire Line
	2250 1300 2250 1900
Wire Wire Line
	2250 1900 1850 1900
Connection ~ 2250 1300
Wire Wire Line
	3300 1400 4050 1400
Wire Wire Line
	4650 1500 5250 1500
Wire Wire Line
	4850 1500 4850 2100
Wire Wire Line
	4850 2100 4450 2100
Connection ~ 4850 1500
Wire Wire Line
	5850 1600 6150 1600
Wire Wire Line
	6050 1600 6050 2200
Wire Wire Line
	6050 2200 5650 2200
$Comp
L R R9
U 1 1 5A1CBCFE
P 6300 1600
F 0 "R9" V 6380 1600 50  0000 C CNN
F 1 "2.7k" V 6300 1600 50  0000 C CNN
F 2 "" V 6230 1600 50  0001 C CNN
F 3 "" H 6300 1600 50  0001 C CNN
	1    6300 1600
	0    1    1    0   
$EndComp
Connection ~ 6050 1600
$Comp
L R R10
U 1 1 5A1CBDA3
P 6550 1850
F 0 "R10" V 6630 1850 50  0000 C CNN
F 1 "43" V 6550 1850 50  0000 C CNN
F 2 "" V 6480 1850 50  0001 C CNN
F 3 "" H 6550 1850 50  0001 C CNN
	1    6550 1850
	1    0    0    -1  
$EndComp
Wire Wire Line
	6450 1600 6650 1600
Wire Wire Line
	6550 1500 6550 1700
$Comp
L GND #PWR015
U 1 1 5A1CBE51
P 6550 2000
F 0 "#PWR015" H 6550 1750 50  0001 C CNN
F 1 "GND" H 6550 1850 50  0000 C CNN
F 2 "" H 6550 2000 50  0001 C CNN
F 3 "" H 6550 2000 50  0001 C CNN
	1    6550 2000
	1    0    0    -1  
$EndComp
$Comp
L C C2
U 1 1 5A1CBE85
P 6550 1350
F 0 "C2" H 6575 1450 50  0000 L CNN
F 1 "10nF" H 6575 1250 50  0000 L CNN
F 2 "" H 6588 1200 50  0001 C CNN
F 3 "" H 6550 1350 50  0001 C CNN
	1    6550 1350
	1    0    0    -1  
$EndComp
$Comp
L C C3
U 1 1 5A1CBEC2
P 6800 1600
F 0 "C3" H 6825 1700 50  0000 L CNN
F 1 "10nF" H 6825 1500 50  0000 L CNN
F 2 "" H 6838 1450 50  0001 C CNN
F 3 "" H 6800 1600 50  0001 C CNN
	1    6800 1600
	0    1    1    0   
$EndComp
Connection ~ 6550 1600
$Comp
L R R11
U 1 1 5A1CC04D
P 7050 1350
F 0 "R11" V 7130 1350 50  0000 C CNN
F 1 "6.8k" V 7050 1350 50  0000 C CNN
F 2 "" V 6980 1350 50  0001 C CNN
F 3 "" H 7050 1350 50  0001 C CNN
	1    7050 1350
	1    0    0    -1  
$EndComp
Wire Wire Line
	6950 1600 7600 1600
Wire Wire Line
	7050 1600 7050 1500
$Comp
L MCP6004 U2
U 1 1 5A1CC148
P 7900 1500
F 0 "U2" H 7900 1700 50  0000 L CNN
F 1 "MCP6004" H 7900 1300 50  0000 L CNN
F 2 "" H 7850 1600 50  0001 C CNN
F 3 "" H 7950 1700 50  0001 C CNN
	1    7900 1500
	1    0    0    -1  
$EndComp
Connection ~ 7050 1600
$Comp
L +3.3V #PWR016
U 1 1 5A1CC37C
P 7800 1200
F 0 "#PWR016" H 7800 1050 50  0001 C CNN
F 1 "+3.3V" H 7800 1340 50  0000 C CNN
F 2 "" H 7800 1200 50  0001 C CNN
F 3 "" H 7800 1200 50  0001 C CNN
	1    7800 1200
	1    0    0    -1  
$EndComp
$Comp
L GND #PWR017
U 1 1 5A1CC3B8
P 7800 1800
F 0 "#PWR017" H 7800 1550 50  0001 C CNN
F 1 "GND" H 7800 1650 50  0000 C CNN
F 2 "" H 7800 1800 50  0001 C CNN
F 3 "" H 7800 1800 50  0001 C CNN
	1    7800 1800
	1    0    0    -1  
$EndComp
Wire Wire Line
	6550 1200 6550 900 
Wire Wire Line
	6550 900  8300 900 
Wire Wire Line
	8300 900  8300 2600
Wire Wire Line
	8200 1500 8450 1500
Wire Wire Line
	7050 1200 7050 900 
Connection ~ 7050 900 
Text GLabel 7600 1400 0    60   Input ~ 0
+1.65V
$Comp
L R R12
U 1 1 5A1CC8E3
P 8600 1500
F 0 "R12" V 8680 1500 50  0000 C CNN
F 1 "2.7k" V 8600 1500 50  0000 C CNN
F 2 "" V 8530 1500 50  0001 C CNN
F 3 "" H 8600 1500 50  0001 C CNN
	1    8600 1500
	0    1    1    0   
$EndComp
$Comp
L R R13
U 1 1 5A1CC8E9
P 8850 1750
F 0 "R13" V 8930 1750 50  0000 C CNN
F 1 "36" V 8850 1750 50  0000 C CNN
F 2 "" V 8780 1750 50  0001 C CNN
F 3 "" H 8850 1750 50  0001 C CNN
	1    8850 1750
	1    0    0    -1  
$EndComp
Wire Wire Line
	8750 1500 8950 1500
Wire Wire Line
	8850 1400 8850 1600
$Comp
L GND #PWR018
U 1 1 5A1CC8F3
P 8850 1900
F 0 "#PWR018" H 8850 1650 50  0001 C CNN
F 1 "GND" H 8850 1750 50  0000 C CNN
F 2 "" H 8850 1900 50  0001 C CNN
F 3 "" H 8850 1900 50  0001 C CNN
	1    8850 1900
	1    0    0    -1  
$EndComp
$Comp
L C C4
U 1 1 5A1CC8F9
P 8850 1250
F 0 "C4" H 8875 1350 50  0000 L CNN
F 1 "10nF" H 8875 1150 50  0000 L CNN
F 2 "" H 8888 1100 50  0001 C CNN
F 3 "" H 8850 1250 50  0001 C CNN
	1    8850 1250
	1    0    0    -1  
$EndComp
$Comp
L C C5
U 1 1 5A1CC8FF
P 9100 1500
F 0 "C5" H 9125 1600 50  0000 L CNN
F 1 "10nF" H 9125 1400 50  0000 L CNN
F 2 "" H 9138 1350 50  0001 C CNN
F 3 "" H 9100 1500 50  0001 C CNN
	1    9100 1500
	0    1    1    0   
$EndComp
Connection ~ 8850 1500
$Comp
L R R14
U 1 1 5A1CC906
P 9350 1250
F 0 "R14" V 9430 1250 50  0000 C CNN
F 1 "6.8k" V 9350 1250 50  0000 C CNN
F 2 "" V 9280 1250 50  0001 C CNN
F 3 "" H 9350 1250 50  0001 C CNN
	1    9350 1250
	1    0    0    -1  
$EndComp
Wire Wire Line
	9250 1500 9900 1500
Wire Wire Line
	9350 1500 9350 1400
$Comp
L MCP6004 U2
U 2 1 5A1CC90F
P 10200 1400
F 0 "U2" H 10200 1600 50  0000 L CNN
F 1 "MCP6004" H 10200 1200 50  0000 L CNN
F 2 "" H 10150 1500 50  0001 C CNN
F 3 "" H 10250 1600 50  0001 C CNN
	2    10200 1400
	1    0    0    -1  
$EndComp
Connection ~ 9350 1500
$Comp
L +3.3V #PWR019
U 1 1 5A1CC916
P 10100 1100
F 0 "#PWR019" H 10100 950 50  0001 C CNN
F 1 "+3.3V" H 10100 1240 50  0000 C CNN
F 2 "" H 10100 1100 50  0001 C CNN
F 3 "" H 10100 1100 50  0001 C CNN
	1    10100 1100
	1    0    0    -1  
$EndComp
$Comp
L GND #PWR020
U 1 1 5A1CC91C
P 10100 1700
F 0 "#PWR020" H 10100 1450 50  0001 C CNN
F 1 "GND" H 10100 1550 50  0000 C CNN
F 2 "" H 10100 1700 50  0001 C CNN
F 3 "" H 10100 1700 50  0001 C CNN
	1    10100 1700
	1    0    0    -1  
$EndComp
Wire Wire Line
	8850 1100 8850 800 
Wire Wire Line
	8850 800  10600 800 
Wire Wire Line
	10600 800  10600 1400
Wire Wire Line
	10600 1400 10500 1400
Wire Wire Line
	9350 1100 9350 800 
Connection ~ 9350 800 
Text GLabel 9900 1300 0    60   Input ~ 0
+1.65V
Connection ~ 8300 1500
$Comp
L MCP6004 U2
U 3 1 5A1CCA9B
P 8800 2700
F 0 "U2" H 8800 2900 50  0000 L CNN
F 1 "MCP6004" H 8800 2500 50  0000 L CNN
F 2 "" H 8750 2800 50  0001 C CNN
F 3 "" H 8850 2900 50  0001 C CNN
	3    8800 2700
	1    0    0    -1  
$EndComp
$Comp
L D D1
U 1 1 5A1CCB4C
P 9350 2700
F 0 "D1" H 9350 2800 50  0000 C CNN
F 1 "D" H 9350 2600 50  0000 C CNN
F 2 "" H 9350 2700 50  0001 C CNN
F 3 "" H 9350 2700 50  0001 C CNN
	1    9350 2700
	-1   0    0    1   
$EndComp
Wire Wire Line
	9100 2700 9200 2700
$Comp
L GND #PWR021
U 1 1 5A1CCC53
P 8700 3000
F 0 "#PWR021" H 8700 2750 50  0001 C CNN
F 1 "GND" H 8700 2850 50  0000 C CNN
F 2 "" H 8700 3000 50  0001 C CNN
F 3 "" H 8700 3000 50  0001 C CNN
	1    8700 3000
	1    0    0    -1  
$EndComp
$Comp
L +3.3V #PWR022
U 1 1 5A1CCC9F
P 8700 2400
F 0 "#PWR022" H 8700 2250 50  0001 C CNN
F 1 "+3.3V" H 8700 2540 50  0000 C CNN
F 2 "" H 8700 2400 50  0001 C CNN
F 3 "" H 8700 2400 50  0001 C CNN
	1    8700 2400
	1    0    0    -1  
$EndComp
Wire Wire Line
	9500 2700 10250 2700
Wire Wire Line
	9600 2700 9600 3250
Wire Wire Line
	9600 3250 8400 3250
Wire Wire Line
	8400 3250 8400 2800
Wire Wire Line
	8400 2800 8500 2800
Wire Wire Line
	8300 2600 8500 2600
$Comp
L C C6
U 1 1 5A1CCE4A
P 9800 2950
F 0 "C6" H 9825 3050 50  0000 L CNN
F 1 "0.1uF" H 9825 2850 50  0000 L CNN
F 2 "" H 9838 2800 50  0001 C CNN
F 3 "" H 9800 2950 50  0001 C CNN
	1    9800 2950
	1    0    0    -1  
$EndComp
$Comp
L R R15
U 1 1 5A1CCEBF
P 10150 2950
F 0 "R15" V 10230 2950 50  0000 C CNN
F 1 "20k" V 10150 2950 50  0000 C CNN
F 2 "" V 10080 2950 50  0001 C CNN
F 3 "" H 10150 2950 50  0001 C CNN
	1    10150 2950
	1    0    0    -1  
$EndComp
$Comp
L GND #PWR023
U 1 1 5A1CCF22
P 9800 3100
F 0 "#PWR023" H 9800 2850 50  0001 C CNN
F 1 "GND" H 9800 2950 50  0000 C CNN
F 2 "" H 9800 3100 50  0001 C CNN
F 3 "" H 9800 3100 50  0001 C CNN
	1    9800 3100
	1    0    0    -1  
$EndComp
$Comp
L GND #PWR024
U 1 1 5A1CCF72
P 10150 3100
F 0 "#PWR024" H 10150 2850 50  0001 C CNN
F 1 "GND" H 10150 2950 50  0000 C CNN
F 2 "" H 10150 3100 50  0001 C CNN
F 3 "" H 10150 3100 50  0001 C CNN
	1    10150 3100
	1    0    0    -1  
$EndComp
Wire Wire Line
	9800 2700 9800 2800
Connection ~ 9600 2700
Wire Wire Line
	10150 2700 10150 2800
Connection ~ 9800 2700
Connection ~ 10150 2700
$Comp
L MCP6004 U2
U 4 1 5A1CDD5F
P 1750 3850
F 0 "U2" H 1750 4050 50  0000 L CNN
F 1 "MCP6004" H 1750 3650 50  0000 L CNN
F 2 "" H 1700 3950 50  0001 C CNN
F 3 "" H 1800 4050 50  0001 C CNN
	4    1750 3850
	1    0    0    -1  
$EndComp
$Comp
L C C7
U 1 1 5A1CDF49
P 1100 4000
F 0 "C7" H 1125 4100 50  0000 L CNN
F 1 "C" H 1125 3900 50  0000 L CNN
F 2 "" H 1138 3850 50  0001 C CNN
F 3 "" H 1100 4000 50  0001 C CNN
	1    1100 4000
	1    0    0    -1  
$EndComp
$Comp
L R R17
U 1 1 5A1CDFA8
P 800 4000
F 0 "R17" V 880 4000 50  0000 C CNN
F 1 "R" V 800 4000 50  0000 C CNN
F 2 "" V 730 4000 50  0001 C CNN
F 3 "" H 800 4000 50  0001 C CNN
	1    800  4000
	1    0    0    -1  
$EndComp
$Comp
L R R16
U 1 1 5A1CE007
P 800 3500
F 0 "R16" V 880 3500 50  0000 C CNN
F 1 "R" V 800 3500 50  0000 C CNN
F 2 "" V 730 3500 50  0001 C CNN
F 3 "" H 800 3500 50  0001 C CNN
	1    800  3500
	1    0    0    -1  
$EndComp
Wire Wire Line
	1450 3950 1350 3950
Wire Wire Line
	1350 3950 1350 4400
$Comp
L GND #PWR025
U 1 1 5A1CE264
P 1650 4150
F 0 "#PWR025" H 1650 3900 50  0001 C CNN
F 1 "GND" H 1650 4000 50  0000 C CNN
F 2 "" H 1650 4150 50  0001 C CNN
F 3 "" H 1650 4150 50  0001 C CNN
	1    1650 4150
	1    0    0    -1  
$EndComp
$Comp
L +3.3V #PWR026
U 1 1 5A1CE2BC
P 1650 3550
F 0 "#PWR026" H 1650 3400 50  0001 C CNN
F 1 "+3.3V" H 1650 3690 50  0000 C CNN
F 2 "" H 1650 3550 50  0001 C CNN
F 3 "" H 1650 3550 50  0001 C CNN
	1    1650 3550
	1    0    0    -1  
$EndComp
Wire Wire Line
	2050 3850 2250 3850
Wire Wire Line
	2150 3850 2150 4400
Wire Wire Line
	2150 4400 1350 4400
$Comp
L +3.3V #PWR027
U 1 1 5A1CE412
P 800 3350
F 0 "#PWR027" H 800 3200 50  0001 C CNN
F 1 "+3.3V" H 800 3490 50  0000 C CNN
F 2 "" H 800 3350 50  0001 C CNN
F 3 "" H 800 3350 50  0001 C CNN
	1    800  3350
	1    0    0    -1  
$EndComp
Wire Wire Line
	800  3650 800  3850
Wire Wire Line
	800  3750 1450 3750
Wire Wire Line
	1100 3750 1100 3850
Connection ~ 1100 3750
Connection ~ 800  3750
$Comp
L GND #PWR028
U 1 1 5A1CE5CF
P 800 4150
F 0 "#PWR028" H 800 3900 50  0001 C CNN
F 1 "GND" H 800 4000 50  0000 C CNN
F 2 "" H 800 4150 50  0001 C CNN
F 3 "" H 800 4150 50  0001 C CNN
	1    800  4150
	1    0    0    -1  
$EndComp
$Comp
L GND #PWR029
U 1 1 5A1CE627
P 1100 4150
F 0 "#PWR029" H 1100 3900 50  0001 C CNN
F 1 "GND" H 1100 4000 50  0000 C CNN
F 2 "" H 1100 4150 50  0001 C CNN
F 3 "" H 1100 4150 50  0001 C CNN
	1    1100 4150
	1    0    0    -1  
$EndComp
Text GLabel 2250 3850 2    60   Output ~ 0
+1.65V
Connection ~ 2150 3850
$Comp
L Conn_01x01 J1
U 1 1 5A1CEB46
P 10450 2700
F 0 "J1" H 10450 2800 50  0000 C CNN
F 1 "UNO32" H 10450 2600 50  0000 C CNN
F 2 "" H 10450 2700 50  0001 C CNN
F 3 "" H 10450 2700 50  0001 C CNN
	1    10450 2700
	1    0    0    -1  
$EndComp
Wire Wire Line
	3400 1400 3400 2000
Wire Wire Line
	3400 2000 3100 2000
Connection ~ 3400 1400
Wire Wire Line
	700  1300 700  1200
Wire Wire Line
	1100 1300 1100 1200
$Comp
L LP2950-3.0_TO92 U3
U 1 1 5A1CFD59
P 3850 3850
F 0 "U3" H 3700 3975 50  0000 C CNN
F 1 "LP2950-3.0_TO92" H 3850 3975 50  0000 L CNN
F 2 "TO_SOT_Packages_THT:TO-92_Inline_Narrow_Oval" H 3850 4075 50  0001 C CIN
F 3 "" H 3850 3800 50  0001 C CNN
	1    3850 3850
	1    0    0    -1  
$EndComp
$Comp
L C C8
U 1 1 5A1CFE5A
P 3450 4100
F 0 "C8" H 3475 4200 50  0000 L CNN
F 1 "0.33nF" H 3475 4000 50  0000 L CNN
F 2 "" H 3488 3950 50  0001 C CNN
F 3 "" H 3450 4100 50  0001 C CNN
	1    3450 4100
	1    0    0    -1  
$EndComp
$Comp
L C C9
U 1 1 5A1CFEE9
P 4250 4100
F 0 "C9" H 4275 4200 50  0000 L CNN
F 1 "0.1uF" H 4275 4000 50  0000 L CNN
F 2 "" H 4288 3950 50  0001 C CNN
F 3 "" H 4250 4100 50  0001 C CNN
	1    4250 4100
	1    0    0    -1  
$EndComp
Wire Wire Line
	4250 4350 4250 4250
Wire Wire Line
	3450 4350 4250 4350
Wire Wire Line
	3450 4350 3450 4250
Wire Wire Line
	3850 4150 3850 4450
Connection ~ 3850 4350
$Comp
L GND #PWR030
U 1 1 5A1D0094
P 3850 4450
F 0 "#PWR030" H 3850 4200 50  0001 C CNN
F 1 "GND" H 3850 4300 50  0000 C CNN
F 2 "" H 3850 4450 50  0001 C CNN
F 3 "" H 3850 4450 50  0001 C CNN
	1    3850 4450
	1    0    0    -1  
$EndComp
$Comp
L VCC #PWR031
U 1 1 5A1D0175
P 3350 3750
F 0 "#PWR031" H 3350 3600 50  0001 C CNN
F 1 "VCC" H 3350 3900 50  0000 C CNN
F 2 "" H 3350 3750 50  0001 C CNN
F 3 "" H 3350 3750 50  0001 C CNN
	1    3350 3750
	1    0    0    -1  
$EndComp
Wire Wire Line
	3350 3750 3350 3850
Wire Wire Line
	3350 3850 3550 3850
Wire Wire Line
	3450 3850 3450 3950
Connection ~ 3450 3850
$Comp
L +3.3V #PWR032
U 1 1 5A1D02DB
P 4350 3750
F 0 "#PWR032" H 4350 3600 50  0001 C CNN
F 1 "+3.3V" H 4350 3890 50  0000 C CNN
F 2 "" H 4350 3750 50  0001 C CNN
F 3 "" H 4350 3750 50  0001 C CNN
	1    4350 3750
	1    0    0    -1  
$EndComp
Wire Wire Line
	4350 3850 4350 3750
Wire Wire Line
	4150 3850 4350 3850
Wire Wire Line
	4250 3850 4250 3950
Connection ~ 4250 3850
$EndSCHEMATC
