EESchema Schematic File Version 2
LIBS:power
LIBS:device
LIBS:switches
LIBS:relays
LIBS:motors
LIBS:transistors
LIBS:conn
LIBS:linear
LIBS:regul
LIBS:74xx
LIBS:cmos4000
LIBS:adc-dac
LIBS:memory
LIBS:xilinx
LIBS:microcontrollers
LIBS:dsp
LIBS:microchip
LIBS:analog_switches
LIBS:motorola
LIBS:texas
LIBS:intel
LIBS:audio
LIBS:interface
LIBS:digital-audio
LIBS:philips
LIBS:display
LIBS:cypress
LIBS:siliconi
LIBS:opto
LIBS:atmel
LIBS:contrib
LIBS:valves
LIBS:tape-sensor-cache
EELAYER 25 0
EELAYER END
$Descr A4 11693 8268
encoding utf-8
Sheet 1 1
Title ""
Date ""
Rev ""
Comp ""
Comment1 ""
Comment2 ""
Comment3 ""
Comment4 ""
$EndDescr
$Comp
L R R2
U 1 1 5A1CC03D
P 1600 1350
F 0 "R2" V 1680 1350 50  0000 C CNN
F 1 "470" V 1600 1350 50  0000 C CNN
F 2 "" V 1530 1350 50  0001 C CNN
F 3 "" H 1600 1350 50  0001 C CNN
	1    1600 1350
	1    0    0    -1  
$EndComp
$Comp
L TIP122 Q1
U 1 1 5A1CC084
P 1500 1800
F 0 "Q1" H 1750 1875 50  0000 L CNN
F 1 "TIP122" H 1750 1800 50  0000 L CNN
F 2 "TO_SOT_Packages_THT:TO-220_Vertical" H 1750 1725 50  0001 L CIN
F 3 "" H 1500 1800 50  0001 L CNN
	1    1500 1800
	1    0    0    -1  
$EndComp
$Comp
L Conn_01x01 J1
U 1 1 5A1CC14C
P 800 1800
F 0 "J1" H 800 1900 50  0000 C CNN
F 1 "UNO32 Dout" H 800 1700 50  0000 C CNN
F 2 "" H 800 1800 50  0001 C CNN
F 3 "" H 800 1800 50  0001 C CNN
	1    800  1800
	-1   0    0    1   
$EndComp
$Comp
L GND #PWR1
U 1 1 5A1CC1C0
P 1600 2000
F 0 "#PWR1" H 1600 1750 50  0001 C CNN
F 1 "GND" H 1600 1850 50  0000 C CNN
F 2 "" H 1600 2000 50  0001 C CNN
F 3 "" H 1600 2000 50  0001 C CNN
	1    1600 2000
	1    0    0    -1  
$EndComp
$Comp
L R R3
U 1 1 5A1CC21D
P 2500 1350
F 0 "R3" V 2580 1350 50  0000 C CNN
F 1 "5.6k" V 2500 1350 50  0000 C CNN
F 2 "" V 2430 1350 50  0001 C CNN
F 3 "" H 2500 1350 50  0001 C CNN
	1    2500 1350
	1    0    0    -1  
$EndComp
$Comp
L VO615A U2
U 1 1 5A1CCEAE
P 2050 950
F 0 "U2" H 2050 1250 50  0000 C CNN
F 1 "VO615A" H 2050 1150 50  0000 C CNN
F 2 "" H 2050 950 50  0001 C CNN
F 3 "" H 2050 950 50  0001 C CNN
	1    2050 950 
	1    0    0    -1  
$EndComp
$Comp
L +3.3V #PWR2
U 1 1 5A1CCF49
P 1750 850
F 0 "#PWR2" H 1750 700 50  0001 C CNN
F 1 "+3.3V" H 1750 990 50  0000 C CNN
F 2 "" H 1750 850 50  0001 C CNN
F 3 "" H 1750 850 50  0001 C CNN
	1    1750 850 
	1    0    0    -1  
$EndComp
$Comp
L +3.3V #PWR3
U 1 1 5A1CCF77
P 2350 850
F 0 "#PWR3" H 2350 700 50  0001 C CNN
F 1 "+3.3V" H 2350 990 50  0000 C CNN
F 2 "" H 2350 850 50  0001 C CNN
F 3 "" H 2350 850 50  0001 C CNN
	1    2350 850 
	1    0    0    -1  
$EndComp
Wire Wire Line
	1600 1500 1600 1600
Wire Wire Line
	1600 1050 1750 1050
$Comp
L R R1
U 1 1 5A290C31
P 1150 1800
F 0 "R1" V 1230 1800 50  0000 C CNN
F 1 "10k" V 1150 1800 50  0000 C CNN
F 2 "" V 1080 1800 50  0001 C CNN
F 3 "" H 1150 1800 50  0001 C CNN
	1    1150 1800
	0    1    1    0   
$EndComp
$Comp
L GND #PWR4
U 1 1 5A291344
P 2500 1500
F 0 "#PWR4" H 2500 1250 50  0001 C CNN
F 1 "GND" H 2500 1350 50  0000 C CNN
F 2 "" H 2500 1500 50  0001 C CNN
F 3 "" H 2500 1500 50  0001 C CNN
	1    2500 1500
	1    0    0    -1  
$EndComp
$Comp
L Conn_01x01 J2
U 1 1 5A1CC7CA
P 2850 1050
F 0 "J2" H 2850 1150 50  0000 C CNN
F 1 "UNO32 Ain" H 2850 950 50  0000 C CNN
F 2 "" H 2850 1050 50  0001 C CNN
F 3 "" H 2850 1050 50  0001 C CNN
	1    2850 1050
	1    0    0    -1  
$EndComp
Wire Wire Line
	1600 1050 1600 1200
Wire Wire Line
	2350 1050 2650 1050
Wire Wire Line
	2500 1050 2500 1200
Connection ~ 2500 1050
$EndSCHEMATC
