EESchema Schematic File Version 2
LIBS:power
LIBS:device
LIBS:switches
LIBS:relays
LIBS:motors
LIBS:transistors
LIBS:conn
LIBS:linear
LIBS:regul
LIBS:74xx
LIBS:cmos4000
LIBS:adc-dac
LIBS:memory
LIBS:xilinx
LIBS:microcontrollers
LIBS:dsp
LIBS:microchip
LIBS:analog_switches
LIBS:motorola
LIBS:texas
LIBS:intel
LIBS:audio
LIBS:interface
LIBS:digital-audio
LIBS:philips
LIBS:display
LIBS:cypress
LIBS:siliconi
LIBS:opto
LIBS:atmel
LIBS:contrib
LIBS:valves
LIBS:beacon-detector-cache
EELAYER 25 0
EELAYER END
$Descr A4 11693 8268
encoding utf-8
Sheet 1 1
Title ""
Date ""
Rev ""
Comp ""
Comment1 ""
Comment2 ""
Comment3 ""
Comment4 ""
$EndDescr
$Comp
L +3.3V #PWR01
U 1 1 59E7D1CF
P 800 1450
F 0 "#PWR01" H 800 1300 50  0001 C CNN
F 1 "+3.3V" H 800 1590 50  0000 C CNN
F 2 "" H 800 1450 50  0001 C CNN
F 3 "" H 800 1450 50  0001 C CNN
	1    800  1450
	1    0    0    -1  
$EndComp
$Comp
L R R1
U 1 1 59E7D24B
P 800 2050
F 0 "R1" V 880 2050 50  0000 C CNN
F 1 "47k" V 800 2050 50  0000 C CNN
F 2 "Resistors_THT:R_Axial_DIN0204_L3.6mm_D1.6mm_P2.54mm_Vertical" V 730 2050 50  0001 C CNN
F 3 "" H 800 2050 50  0001 C CNN
	1    800  2050
	1    0    0    -1  
$EndComp
$Comp
L +3.3V #PWR02
U 1 1 59E7D7CC
P 850 3000
F 0 "#PWR02" H 850 2850 50  0001 C CNN
F 1 "+3.3V" H 850 3140 50  0000 C CNN
F 2 "" H 850 3000 50  0001 C CNN
F 3 "" H 850 3000 50  0001 C CNN
	1    850  3000
	1    0    0    -1  
$EndComp
$Comp
L R R24
U 1 1 59E7D7E6
P 850 3150
F 0 "R24" V 930 3150 50  0000 C CNN
F 1 "10k" V 850 3150 50  0000 C CNN
F 2 "Resistors_THT:R_Axial_DIN0204_L3.6mm_D1.6mm_P2.54mm_Vertical" V 780 3150 50  0001 C CNN
F 3 "" H 850 3150 50  0001 C CNN
	1    850  3150
	1    0    0    -1  
$EndComp
$Comp
L R R25
U 1 1 59E7D80B
P 850 3450
F 0 "R25" V 930 3450 50  0000 C CNN
F 1 "10k" V 850 3450 50  0000 C CNN
F 2 "Resistors_THT:R_Axial_DIN0204_L3.6mm_D1.6mm_P2.54mm_Vertical" V 780 3450 50  0001 C CNN
F 3 "" H 850 3450 50  0001 C CNN
	1    850  3450
	1    0    0    -1  
$EndComp
$Comp
L GND #PWR03
U 1 1 59E7D862
P 850 3600
F 0 "#PWR03" H 850 3350 50  0001 C CNN
F 1 "GND" H 850 3450 50  0000 C CNN
F 2 "" H 850 3600 50  0001 C CNN
F 3 "" H 850 3600 50  0001 C CNN
	1    850  3600
	1    0    0    -1  
$EndComp
$Comp
L C C6
U 1 1 59E7D880
P 1100 3500
F 0 "C6" H 1125 3600 50  0000 L CNN
F 1 "0.1uF" H 1125 3400 50  0000 L CNN
F 2 "Resistors_THT:R_Axial_DIN0204_L3.6mm_D1.6mm_P2.54mm_Vertical" H 1138 3350 50  0001 C CNN
F 3 "" H 1100 3500 50  0001 C CNN
	1    1100 3500
	1    0    0    -1  
$EndComp
$Comp
L MCP6004 U1
U 2 1 59E7D8C3
P 1700 3400
F 0 "U1" H 1700 3600 50  0000 L CNN
F 1 "MCP6004" H 1700 3200 50  0000 L CNN
F 2 "Housings_DIP:DIP-14_W7.62mm_Socket_LongPads" H 1650 3500 50  0001 C CNN
F 3 "" H 1750 3600 50  0001 C CNN
	2    1700 3400
	1    0    0    -1  
$EndComp
$Comp
L +3.3V #PWR04
U 1 1 59E7DBA9
P 1600 3100
F 0 "#PWR04" H 1600 2950 50  0001 C CNN
F 1 "+3.3V" H 1600 3240 50  0000 C CNN
F 2 "" H 1600 3100 50  0001 C CNN
F 3 "" H 1600 3100 50  0001 C CNN
	1    1600 3100
	1    0    0    -1  
$EndComp
$Comp
L GND #PWR05
U 1 1 59E7DC76
P 1100 3650
F 0 "#PWR05" H 1100 3400 50  0001 C CNN
F 1 "GND" H 1100 3500 50  0000 C CNN
F 2 "" H 1100 3650 50  0001 C CNN
F 3 "" H 1100 3650 50  0001 C CNN
	1    1100 3650
	1    0    0    -1  
$EndComp
$Comp
L GND #PWR06
U 1 1 59E7DCA8
P 1600 3700
F 0 "#PWR06" H 1600 3450 50  0001 C CNN
F 1 "GND" H 1600 3550 50  0000 C CNN
F 2 "" H 1600 3700 50  0001 C CNN
F 3 "" H 1600 3700 50  0001 C CNN
	1    1600 3700
	1    0    0    -1  
$EndComp
$Comp
L Q_Photo_NPN Q1
U 1 1 59E7D16B
P 700 1650
F 0 "Q1" H 900 1700 50  0000 L CNN
F 1 "Q_Photo_NPN" H 900 1600 50  0000 L CNN
F 2 "Opto-Devices:PhotoTransistor_Osram_LPT80A" H 900 1750 50  0001 C CNN
F 3 "" H 700 1650 50  0001 C CNN
	1    700  1650
	1    0    0    -1  
$EndComp
Text GLabel 2200 3400 2    60   Output ~ 0
+1.65V
$Comp
L R R21
U 1 1 59E98771
P 8650 900
F 0 "R21" V 8730 900 50  0000 C CNN
F 1 "510k" V 8650 900 50  0000 C CNN
F 2 "Resistors_THT:R_Axial_DIN0204_L3.6mm_D1.6mm_P2.54mm_Vertical" V 8580 900 50  0001 C CNN
F 3 "" H 8650 900 50  0001 C CNN
	1    8650 900 
	1    0    0    -1  
$EndComp
$Comp
L +3.3V #PWR07
U 1 1 59E987EE
P 8650 750
F 0 "#PWR07" H 8650 600 50  0001 C CNN
F 1 "+3.3V" H 8650 890 50  0000 C CNN
F 2 "" H 8650 750 50  0001 C CNN
F 3 "" H 8650 750 50  0001 C CNN
	1    8650 750 
	1    0    0    -1  
$EndComp
$Comp
L R R20
U 1 1 59E99288
P 8650 1400
F 0 "R20" V 8730 1400 50  0000 C CNN
F 1 "820k" V 8650 1400 50  0000 C CNN
F 2 "Resistors_THT:R_Axial_DIN0204_L3.6mm_D1.6mm_P2.54mm_Vertical" V 8580 1400 50  0001 C CNN
F 3 "" H 8650 1400 50  0001 C CNN
	1    8650 1400
	1    0    0    -1  
$EndComp
$Comp
L GND #PWR08
U 1 1 59E992FD
P 8650 1550
F 0 "#PWR08" H 8650 1300 50  0001 C CNN
F 1 "GND" H 8650 1400 50  0000 C CNN
F 2 "" H 8650 1550 50  0001 C CNN
F 3 "" H 8650 1550 50  0001 C CNN
	1    8650 1550
	1    0    0    -1  
$EndComp
$Comp
L +3.3V #PWR09
U 1 1 59E9A352
P 9450 1450
F 0 "#PWR09" H 9450 1300 50  0001 C CNN
F 1 "+3.3V" H 9450 1590 50  0000 C CNN
F 2 "" H 9450 1450 50  0001 C CNN
F 3 "" H 9450 1450 50  0001 C CNN
	1    9450 1450
	1    0    0    -1  
$EndComp
$Comp
L GND #PWR010
U 1 1 59E9A3BE
P 9450 2050
F 0 "#PWR010" H 9450 1800 50  0001 C CNN
F 1 "GND" H 9450 1900 50  0000 C CNN
F 2 "" H 9450 2050 50  0001 C CNN
F 3 "" H 9450 2050 50  0001 C CNN
	1    9450 2050
	1    0    0    -1  
$EndComp
$Comp
L R R22
U 1 1 59E9A503
P 9250 1150
F 0 "R22" V 9330 1150 50  0000 C CNN
F 1 "1M" V 9250 1150 50  0000 C CNN
F 2 "Resistors_THT:R_Axial_DIN0204_L3.6mm_D1.6mm_P2.54mm_Vertical" V 9180 1150 50  0001 C CNN
F 3 "" H 9250 1150 50  0001 C CNN
	1    9250 1150
	0    1    1    0   
$EndComp
$Comp
L MCP6004 U2
U 2 1 59E9A604
P 9550 1750
F 0 "U2" H 9550 1950 50  0000 L CNN
F 1 "MCP6004" H 9550 1550 50  0000 L CNN
F 2 "Housings_DIP:DIP-14_W7.62mm_Socket_LongPads" H 9500 1850 50  0001 C CNN
F 3 "" H 9600 1950 50  0001 C CNN
	2    9550 1750
	1    0    0    -1  
$EndComp
$Comp
L R R23
U 1 1 59E9D87C
P 10150 3250
F 0 "R23" V 10230 3250 50  0000 C CNN
F 1 "56" V 10150 3250 50  0000 C CNN
F 2 "Resistors_THT:R_Axial_DIN0204_L3.6mm_D1.6mm_P2.54mm_Vertical" V 10080 3250 50  0001 C CNN
F 3 "" H 10150 3250 50  0001 C CNN
	1    10150 3250
	1    0    0    -1  
$EndComp
$Comp
L LED D1
U 1 1 59E9FB38
P 10150 2950
F 0 "D1" H 10150 3050 50  0000 C CNN
F 1 "LED" H 10150 2850 50  0000 C CNN
F 2 "LEDs:LED_D5.0mm" H 10150 2950 50  0001 C CNN
F 3 "" H 10150 2950 50  0001 C CNN
	1    10150 2950
	0    1    -1   0   
$EndComp
$Comp
L +3.3V #PWR011
U 1 1 59E9FBCF
P 10150 2800
F 0 "#PWR011" H 10150 2650 50  0001 C CNN
F 1 "+3.3V" H 10150 2940 50  0000 C CNN
F 2 "" H 10150 2800 50  0001 C CNN
F 3 "" H 10150 2800 50  0001 C CNN
	1    10150 2800
	1    0    0    -1  
$EndComp
$Comp
L LP2950-3.0_TO92 U5
U 1 1 59EA0C71
P 3500 3550
F 0 "U5" H 3350 3675 50  0000 C CNN
F 1 "LP2950-3.0_TO92" H 3500 3675 50  0000 L CNN
F 2 "TO_SOT_Packages_THT:TO-220-3_Vertical" H 3500 3775 50  0001 C CIN
F 3 "" H 3500 3500 50  0001 C CNN
	1    3500 3550
	1    0    0    -1  
$EndComp
$Comp
L GND #PWR012
U 1 1 59EA141A
P 3500 4000
F 0 "#PWR012" H 3500 3750 50  0001 C CNN
F 1 "GND" H 3500 3850 50  0000 C CNN
F 2 "" H 3500 4000 50  0001 C CNN
F 3 "" H 3500 4000 50  0001 C CNN
	1    3500 4000
	1    0    0    -1  
$EndComp
$Comp
L VCC #PWR013
U 1 1 59EA1BAA
P 3100 3450
F 0 "#PWR013" H 3100 3300 50  0001 C CNN
F 1 "VCC" H 3100 3600 50  0000 C CNN
F 2 "" H 3100 3450 50  0001 C CNN
F 3 "" H 3100 3450 50  0001 C CNN
	1    3100 3450
	1    0    0    -1  
$EndComp
$Comp
L +3.3V #PWR014
U 1 1 59EA1CD7
P 3900 3350
F 0 "#PWR014" H 3900 3200 50  0001 C CNN
F 1 "+3.3V" H 3900 3490 50  0000 C CNN
F 2 "" H 3900 3350 50  0001 C CNN
F 3 "" H 3900 3350 50  0001 C CNN
	1    3900 3350
	1    0    0    -1  
$EndComp
$Comp
L Conn_01x03_Male J1
U 1 1 59EAD48E
P 10800 3300
F 0 "J1" H 10800 3500 50  0000 C CNN
F 1 "Conn_01x03_Male" H 10800 3100 50  0000 C CNN
F 2 "Connectors:PINHEAD1-3" H 10800 3300 50  0001 C CNN
F 3 "" H 10800 3300 50  0001 C CNN
	1    10800 3300
	-1   0    0    -1  
$EndComp
$Comp
L VCC #PWR015
U 1 1 59EAD5ED
P 10500 3200
F 0 "#PWR015" H 10500 3050 50  0001 C CNN
F 1 "VCC" H 10500 3350 50  0000 C CNN
F 2 "" H 10500 3200 50  0001 C CNN
F 3 "" H 10500 3200 50  0001 C CNN
	1    10500 3200
	1    0    0    -1  
$EndComp
$Comp
L GND #PWR016
U 1 1 59EAD719
P 10500 3300
F 0 "#PWR016" H 10500 3050 50  0001 C CNN
F 1 "GND" H 10500 3150 50  0000 C CNN
F 2 "" H 10500 3300 50  0001 C CNN
F 3 "" H 10500 3300 50  0001 C CNN
	1    10500 3300
	1    0    0    -1  
$EndComp
$Comp
L C C7
U 1 1 59EB0202
P 3150 3700
F 0 "C7" H 3175 3800 50  0000 L CNN
F 1 "0.33uF" H 3175 3600 50  0000 L CNN
F 2 "Resistors_THT:R_Axial_DIN0204_L3.6mm_D1.6mm_P2.54mm_Vertical" H 3188 3550 50  0001 C CNN
F 3 "" H 3150 3700 50  0001 C CNN
	1    3150 3700
	1    0    0    -1  
$EndComp
$Comp
L C C8
U 1 1 59EB0287
P 3850 3700
F 0 "C8" H 3875 3800 50  0000 L CNN
F 1 "0.1uF" H 3875 3600 50  0000 L CNN
F 2 "Resistors_THT:R_Axial_DIN0204_L3.6mm_D1.6mm_P2.54mm_Vertical" H 3888 3550 50  0001 C CNN
F 3 "" H 3850 3700 50  0001 C CNN
	1    3850 3700
	1    0    0    -1  
$EndComp
$Comp
L R R3
U 1 1 59ED37E8
P 2700 1950
F 0 "R3" V 2780 1950 50  0000 C CNN
F 1 "12K" V 2700 1950 50  0000 C CNN
F 2 "Resistors_THT:R_Axial_DIN0204_L3.6mm_D1.6mm_P2.54mm_Vertical" V 2630 1950 50  0001 C CNN
F 3 "" H 2700 1950 50  0001 C CNN
	1    2700 1950
	0    1    1    0   
$EndComp
$Comp
L R R4
U 1 1 59ED3B03
P 2850 2100
F 0 "R4" V 2930 2100 50  0000 C CNN
F 1 "680" V 2850 2100 50  0000 C CNN
F 2 "Resistors_THT:R_Axial_DIN0204_L3.6mm_D1.6mm_P2.54mm_Vertical" V 2780 2100 50  0001 C CNN
F 3 "" H 2850 2100 50  0001 C CNN
	1    2850 2100
	1    0    0    -1  
$EndComp
$Comp
L R R6
U 1 1 59ED3BE0
P 3300 1750
F 0 "R6" V 3380 1750 50  0000 C CNN
F 1 "75K" V 3300 1750 50  0000 C CNN
F 2 "Resistors_THT:R_Axial_DIN0204_L3.6mm_D1.6mm_P2.54mm_Vertical" V 3230 1750 50  0001 C CNN
F 3 "" H 3300 1750 50  0001 C CNN
	1    3300 1750
	1    0    0    -1  
$EndComp
$Comp
L R R9
U 1 1 59ED3CA4
P 4350 1700
F 0 "R9" V 4430 1700 50  0000 C CNN
F 1 "68K" V 4350 1700 50  0000 C CNN
F 2 "Resistors_THT:R_Axial_DIN0204_L3.6mm_D1.6mm_P2.54mm_Vertical" V 4280 1700 50  0001 C CNN
F 3 "" H 4350 1700 50  0001 C CNN
	1    4350 1700
	1    0    0    -1  
$EndComp
$Comp
L R R8
U 1 1 59ED3D82
P 3600 1400
F 0 "R8" V 3680 1400 50  0000 C CNN
F 1 "1K" V 3600 1400 50  0000 C CNN
F 2 "Resistors_THT:R_Axial_DIN0204_L3.6mm_D1.6mm_P2.54mm_Vertical" V 3530 1400 50  0001 C CNN
F 3 "" H 3600 1400 50  0001 C CNN
	1    3600 1400
	1    0    0    -1  
$EndComp
$Comp
L C_Small C2
U 1 1 59ED4068
P 3100 1950
F 0 "C2" H 3110 2020 50  0000 L CNN
F 1 "0.01uF" H 3110 1870 50  0000 L CNN
F 2 "Resistors_THT:R_Axial_DIN0204_L3.6mm_D1.6mm_P2.54mm_Vertical" H 3100 1950 50  0001 C CNN
F 3 "" H 3100 1950 50  0001 C CNN
	1    3100 1950
	0    1    1    0   
$EndComp
$Comp
L C_Small C1
U 1 1 59ED41DF
P 3100 1550
F 0 "C1" H 3110 1620 50  0000 L CNN
F 1 "0.01uF" H 3110 1470 50  0000 L CNN
F 2 "Resistors_THT:R_Axial_DIN0204_L3.6mm_D1.6mm_P2.54mm_Vertical" H 3100 1550 50  0001 C CNN
F 3 "" H 3100 1550 50  0001 C CNN
	1    3100 1550
	0    1    1    0   
$EndComp
$Comp
L MCP6004 U1
U 3 1 59ED4380
P 4050 1850
F 0 "U1" H 4050 2050 50  0000 L CNN
F 1 "MCP6004" H 4050 1650 50  0000 L CNN
F 2 "Housings_DIP:DIP-14_W7.62mm_Socket_LongPads" H 4000 1950 50  0001 C CNN
F 3 "" H 4100 2050 50  0001 C CNN
	3    4050 1850
	1    0    0    -1  
$EndComp
$Comp
L GND #PWR017
U 1 1 59ED58D8
P 3950 2150
F 0 "#PWR017" H 3950 1900 50  0001 C CNN
F 1 "GND" H 3950 2000 50  0000 C CNN
F 2 "" H 3950 2150 50  0001 C CNN
F 3 "" H 3950 2150 50  0001 C CNN
	1    3950 2150
	1    0    0    -1  
$EndComp
$Comp
L +3.3V #PWR018
U 1 1 59ED6B26
P 3950 1550
F 0 "#PWR018" H 3950 1400 50  0001 C CNN
F 1 "+3.3V" H 3950 1690 50  0000 C CNN
F 2 "" H 3950 1550 50  0001 C CNN
F 3 "" H 3950 1550 50  0001 C CNN
	1    3950 1550
	1    0    0    -1  
$EndComp
Text GLabel 3450 1600 1    60   Input ~ 0
+1.65V
$Comp
L R R2
U 1 1 59ED9431
P 2400 1950
F 0 "R2" V 2480 1950 50  0000 C CNN
F 1 "150K" V 2400 1950 50  0000 C CNN
F 2 "Resistors_THT:R_Axial_DIN0204_L3.6mm_D1.6mm_P2.54mm_Vertical" V 2330 1950 50  0001 C CNN
F 3 "" H 2400 1950 50  0001 C CNN
	1    2400 1950
	0    1    1    0   
$EndComp
$Comp
L R R5
U 1 1 59ED9766
P 2700 2300
F 0 "R5" V 2780 2300 50  0000 C CNN
F 1 "68" V 2700 2300 50  0000 C CNN
F 2 "Resistors_THT:R_Axial_DIN0204_L3.6mm_D1.6mm_P2.54mm_Vertical" V 2630 2300 50  0001 C CNN
F 3 "" H 2700 2300 50  0001 C CNN
	1    2700 2300
	0    1    1    0   
$EndComp
$Comp
L R R7
U 1 1 59EDA117
P 3600 1750
F 0 "R7" V 3680 1750 50  0000 C CNN
F 1 "120" V 3600 1750 50  0000 C CNN
F 2 "Resistors_THT:R_Axial_DIN0204_L3.6mm_D1.6mm_P2.54mm_Vertical" V 3530 1750 50  0001 C CNN
F 3 "" H 3600 1750 50  0001 C CNN
	1    3600 1750
	1    0    0    -1  
$EndComp
$Comp
L R R11
U 1 1 59EDAE0B
P 5100 1850
F 0 "R11" V 5180 1850 50  0000 C CNN
F 1 "20K" V 5100 1850 50  0000 C CNN
F 2 "Resistors_THT:R_Axial_DIN0204_L3.6mm_D1.6mm_P2.54mm_Vertical" V 5030 1850 50  0001 C CNN
F 3 "" H 5100 1850 50  0001 C CNN
	1    5100 1850
	0    1    1    0   
$EndComp
$Comp
L R R13
U 1 1 59EDAE11
P 5250 2000
F 0 "R13" V 5330 2000 50  0000 C CNN
F 1 "680" V 5250 2000 50  0000 C CNN
F 2 "Resistors_THT:R_Axial_DIN0204_L3.6mm_D1.6mm_P2.54mm_Vertical" V 5180 2000 50  0001 C CNN
F 3 "" H 5250 2000 50  0001 C CNN
	1    5250 2000
	1    0    0    -1  
$EndComp
$Comp
L R R14
U 1 1 59EDAE17
P 5650 1650
F 0 "R14" V 5730 1650 50  0000 C CNN
F 1 "75K" V 5650 1650 50  0000 C CNN
F 2 "Resistors_THT:R_Axial_DIN0204_L3.6mm_D1.6mm_P2.54mm_Vertical" V 5580 1650 50  0001 C CNN
F 3 "" H 5650 1650 50  0001 C CNN
	1    5650 1650
	1    0    0    -1  
$EndComp
$Comp
L R R18
U 1 1 59EDAE1D
P 6750 1600
F 0 "R18" V 6830 1600 50  0000 C CNN
F 1 "68K" V 6750 1600 50  0000 C CNN
F 2 "Resistors_THT:R_Axial_DIN0204_L3.6mm_D1.6mm_P2.54mm_Vertical" V 6680 1600 50  0001 C CNN
F 3 "" H 6750 1600 50  0001 C CNN
	1    6750 1600
	1    0    0    -1  
$EndComp
$Comp
L R R17
U 1 1 59EDAE23
P 6000 1300
F 0 "R17" V 6080 1300 50  0000 C CNN
F 1 "1K" V 6000 1300 50  0000 C CNN
F 2 "Resistors_THT:R_Axial_DIN0204_L3.6mm_D1.6mm_P2.54mm_Vertical" V 5930 1300 50  0001 C CNN
F 3 "" H 6000 1300 50  0001 C CNN
	1    6000 1300
	1    0    0    -1  
$EndComp
$Comp
L C_Small C4
U 1 1 59EDAE29
P 5500 1850
F 0 "C4" H 5510 1920 50  0000 L CNN
F 1 "0.01uF" H 5510 1770 50  0000 L CNN
F 2 "Resistors_THT:R_Axial_DIN0204_L3.6mm_D1.6mm_P2.54mm_Vertical" H 5500 1850 50  0001 C CNN
F 3 "" H 5500 1850 50  0001 C CNN
	1    5500 1850
	0    1    1    0   
$EndComp
$Comp
L C_Small C3
U 1 1 59EDAE2F
P 5450 1050
F 0 "C3" H 5460 1120 50  0000 L CNN
F 1 "0.01uF" H 5460 970 50  0000 L CNN
F 2 "Resistors_THT:R_Axial_DIN0204_L3.6mm_D1.6mm_P2.54mm_Vertical" H 5450 1050 50  0001 C CNN
F 3 "" H 5450 1050 50  0001 C CNN
	1    5450 1050
	0    1    1    0   
$EndComp
$Comp
L MCP6004 U1
U 4 1 59EDAE35
P 6450 1750
F 0 "U1" H 6450 1950 50  0000 L CNN
F 1 "MCP6004" H 6450 1550 50  0000 L CNN
F 2 "Housings_DIP:DIP-14_W7.62mm_Socket_LongPads" H 6400 1850 50  0001 C CNN
F 3 "" H 6500 1950 50  0001 C CNN
	4    6450 1750
	1    0    0    -1  
$EndComp
$Comp
L GND #PWR019
U 1 1 59EDAE3B
P 6350 2050
F 0 "#PWR019" H 6350 1800 50  0001 C CNN
F 1 "GND" H 6350 1900 50  0000 C CNN
F 2 "" H 6350 2050 50  0001 C CNN
F 3 "" H 6350 2050 50  0001 C CNN
	1    6350 2050
	1    0    0    -1  
$EndComp
$Comp
L +3.3V #PWR020
U 1 1 59EDAE41
P 6350 1450
F 0 "#PWR020" H 6350 1300 50  0001 C CNN
F 1 "+3.3V" H 6350 1590 50  0000 C CNN
F 2 "" H 6350 1450 50  0001 C CNN
F 3 "" H 6350 1450 50  0001 C CNN
	1    6350 1450
	1    0    0    -1  
$EndComp
Text GLabel 5850 1550 1    60   Input ~ 0
+1.65V
Text GLabel 4950 2200 0    60   Input ~ 0
+1.65V
$Comp
L R R10
U 1 1 59EDAE61
P 4800 1850
F 0 "R10" V 4880 1850 50  0000 C CNN
F 1 "150K" V 4800 1850 50  0000 C CNN
F 2 "Resistors_THT:R_Axial_DIN0204_L3.6mm_D1.6mm_P2.54mm_Vertical" V 4730 1850 50  0001 C CNN
F 3 "" H 4800 1850 50  0001 C CNN
	1    4800 1850
	0    1    1    0   
$EndComp
$Comp
L R R12
U 1 1 59EDAE67
P 5100 2200
F 0 "R12" V 5180 2200 50  0000 C CNN
F 1 "100" V 5100 2200 50  0000 C CNN
F 2 "Resistors_THT:R_Axial_DIN0204_L3.6mm_D1.6mm_P2.54mm_Vertical" V 5030 2200 50  0001 C CNN
F 3 "" H 5100 2200 50  0001 C CNN
	1    5100 2200
	0    1    1    0   
$EndComp
$Comp
L R R16
U 1 1 59EDAE6E
P 6000 1650
F 0 "R16" V 6080 1650 50  0000 C CNN
F 1 "120" V 6000 1650 50  0000 C CNN
F 2 "Resistors_THT:R_Axial_DIN0204_L3.6mm_D1.6mm_P2.54mm_Vertical" V 5930 1650 50  0001 C CNN
F 3 "" H 6000 1650 50  0001 C CNN
	1    6000 1650
	1    0    0    -1  
$EndComp
$Comp
L R R15
U 1 1 59EDB36B
P 5650 1300
F 0 "R15" V 5730 1300 50  0000 C CNN
F 1 "2.4K" V 5650 1300 50  0000 C CNN
F 2 "Resistors_THT:R_Axial_DIN0204_L3.6mm_D1.6mm_P2.54mm_Vertical" V 5580 1300 50  0001 C CNN
F 3 "" H 5650 1300 50  0001 C CNN
	1    5650 1300
	1    0    0    -1  
$EndComp
$Comp
L GND #PWR021
U 1 1 5A063535
P 800 2200
F 0 "#PWR021" H 800 1950 50  0001 C CNN
F 1 "GND" H 800 2050 50  0000 C CNN
F 2 "" H 800 2200 50  0001 C CNN
F 3 "" H 800 2200 50  0001 C CNN
	1    800  2200
	1    0    0    -1  
$EndComp
$Comp
L GND #PWR022
U 1 1 59E981D5
P 8400 2150
F 0 "#PWR022" H 8400 1900 50  0001 C CNN
F 1 "GND" H 8400 2000 50  0000 C CNN
F 2 "" H 8400 2150 50  0001 C CNN
F 3 "" H 8400 2150 50  0001 C CNN
	1    8400 2150
	1    0    0    -1  
$EndComp
$Comp
L GND #PWR023
U 1 1 59E9816F
P 8150 2150
F 0 "#PWR023" H 8150 1900 50  0001 C CNN
F 1 "GND" H 8150 2000 50  0000 C CNN
F 2 "" H 8150 2150 50  0001 C CNN
F 3 "" H 8150 2150 50  0001 C CNN
	1    8150 2150
	1    0    0    -1  
$EndComp
$Comp
L C C5
U 1 1 59E97F9E
P 8400 2000
F 0 "C5" H 8425 2100 50  0000 L CNN
F 1 "0.1uF" H 8425 1900 50  0000 L CNN
F 2 "Resistors_THT:R_Axial_DIN0204_L3.6mm_D1.6mm_P2.54mm_Vertical" H 8438 1850 50  0001 C CNN
F 3 "" H 8400 2000 50  0001 C CNN
	1    8400 2000
	1    0    0    -1  
$EndComp
$Comp
L R R19
U 1 1 59E97DFD
P 8150 2000
F 0 "R19" V 8230 2000 50  0000 C CNN
F 1 "15k" V 8150 2000 50  0000 C CNN
F 2 "Resistors_THT:R_Axial_DIN0204_L3.6mm_D1.6mm_P2.54mm_Vertical" V 8080 2000 50  0001 C CNN
F 3 "" H 8150 2000 50  0001 C CNN
	1    8150 2000
	1    0    0    -1  
$EndComp
$Comp
L D D2
U 1 1 59E97A17
P 7850 1850
F 0 "D2" H 7850 1950 50  0000 C CNN
F 1 "D" H 7850 1750 50  0000 C CNN
F 2 "Diodes_THT:D_DO-35_SOD27_P2.54mm_Vertical_KathodeUp" H 7850 1850 50  0001 C CNN
F 3 "" H 7850 1850 50  0001 C CNN
	1    7850 1850
	-1   0    0    1   
$EndComp
$Comp
L +3.3V #PWR024
U 1 1 59E976F0
P 7250 1550
F 0 "#PWR024" H 7250 1400 50  0001 C CNN
F 1 "+3.3V" H 7250 1690 50  0000 C CNN
F 2 "" H 7250 1550 50  0001 C CNN
F 3 "" H 7250 1550 50  0001 C CNN
	1    7250 1550
	1    0    0    -1  
$EndComp
$Comp
L GND #PWR025
U 1 1 59E97690
P 7250 2150
F 0 "#PWR025" H 7250 1900 50  0001 C CNN
F 1 "GND" H 7250 2000 50  0000 C CNN
F 2 "" H 7250 2150 50  0001 C CNN
F 3 "" H 7250 2150 50  0001 C CNN
	1    7250 2150
	1    0    0    -1  
$EndComp
$Comp
L MCP6004 U2
U 1 1 59E97595
P 7350 1850
F 0 "U2" H 7350 2050 50  0000 L CNN
F 1 "MCP6004" H 7350 1650 50  0000 L CNN
F 2 "Housings_DIP:DIP-14_W7.62mm_Socket_LongPads" H 7300 1950 50  0001 C CNN
F 3 "" H 7400 2050 50  0001 C CNN
	1    7350 1850
	1    0    0    -1  
$EndComp
$Comp
L MCP6004 U1
U 1 1 5A07A965
P 1700 1950
F 0 "U1" H 1700 2150 50  0000 L CNN
F 1 "MCP6004" H 1700 1750 50  0000 L CNN
F 2 "" H 1650 2050 50  0001 C CNN
F 3 "" H 1750 2150 50  0001 C CNN
	1    1700 1950
	1    0    0    -1  
$EndComp
$Comp
L +3.3V #PWR026
U 1 1 5A07AD50
P 1600 1650
F 0 "#PWR026" H 1600 1500 50  0001 C CNN
F 1 "+3.3V" H 1600 1790 50  0000 C CNN
F 2 "" H 1600 1650 50  0001 C CNN
F 3 "" H 1600 1650 50  0001 C CNN
	1    1600 1650
	1    0    0    -1  
$EndComp
$Comp
L GND #PWR027
U 1 1 5A07AE54
P 1600 2250
F 0 "#PWR027" H 1600 2000 50  0001 C CNN
F 1 "GND" H 1600 2100 50  0000 C CNN
F 2 "" H 1600 2250 50  0001 C CNN
F 3 "" H 1600 2250 50  0001 C CNN
	1    1600 2250
	1    0    0    -1  
$EndComp
Wire Wire Line
	6750 1750 7050 1750
Wire Wire Line
	5650 1050 5650 1150
Wire Wire Line
	5650 1500 5650 1450
Wire Wire Line
	5850 1800 5850 1550
Wire Wire Line
	6000 1800 5850 1800
Wire Wire Line
	6000 1450 6000 1500
Wire Wire Line
	4950 1850 4950 1850
Connection ~ 6850 1750
Connection ~ 6150 1150
Connection ~ 6850 1050
Wire Wire Line
	6850 1050 6850 1750
Wire Wire Line
	5250 2150 5250 2200
Wire Wire Line
	5650 1800 5650 1850
Wire Wire Line
	6150 1150 6150 1650
Wire Wire Line
	6000 1150 6750 1150
Wire Wire Line
	6750 1150 6750 1450
Connection ~ 6750 1750
Connection ~ 5650 1050
Connection ~ 5650 1850
Wire Wire Line
	5550 1050 6850 1050
Wire Wire Line
	5600 1850 6150 1850
Wire Wire Line
	5250 1850 5400 1850
Wire Wire Line
	5250 1050 5350 1050
Wire Wire Line
	5250 1850 5250 1050
Wire Wire Line
	3450 1900 3450 1600
Wire Wire Line
	3600 1900 3450 1900
Wire Wire Line
	3600 1550 3600 1600
Wire Wire Line
	2550 1950 2550 1950
Connection ~ 4500 1850
Connection ~ 3750 1250
Wire Wire Line
	4500 1150 3300 1150
Connection ~ 4500 1150
Wire Wire Line
	4500 1850 4500 1150
Wire Wire Line
	4350 1850 4650 1850
Wire Wire Line
	3300 1900 3300 1950
Wire Wire Line
	3750 1250 3750 1750
Wire Wire Line
	3600 1250 4350 1250
Wire Wire Line
	4350 1250 4350 1550
Connection ~ 4350 1850
Connection ~ 3300 1550
Connection ~ 3300 1950
Wire Wire Line
	3300 1150 3300 1600
Wire Wire Line
	3200 1550 3300 1550
Wire Wire Line
	3200 1950 3750 1950
Wire Wire Line
	2850 1950 3000 1950
Wire Wire Line
	2850 1550 3000 1550
Wire Wire Line
	2850 1950 2850 1550
Wire Notes Line
	2200 950  2200 2500
Connection ~ 1100 3300
Wire Wire Line
	1100 3350 1100 3300
Connection ~ 3850 3550
Wire Wire Line
	3800 3550 3900 3550
Connection ~ 3150 3550
Wire Wire Line
	3100 3550 3200 3550
Wire Wire Line
	3500 3850 3500 4000
Connection ~ 3500 3950
Wire Wire Line
	3850 3950 3850 3850
Wire Wire Line
	3150 3950 3850 3950
Wire Wire Line
	3150 3850 3150 3950
Wire Wire Line
	10600 3500 10600 3400
Wire Wire Line
	10500 3300 10600 3300
Wire Wire Line
	10600 3200 10500 3200
Wire Wire Line
	3900 3550 3900 3350
Wire Wire Line
	3100 3450 3100 3550
Connection ~ 10150 3500
Wire Wire Line
	9850 1750 10200 1750
Wire Wire Line
	9900 3500 10600 3500
Connection ~ 9950 1750
Wire Wire Line
	9950 1150 9400 1150
Wire Wire Line
	8000 1850 9250 1850
Connection ~ 8950 1150
Wire Wire Line
	8950 1650 9250 1650
Wire Wire Line
	8950 1150 8950 1650
Connection ~ 8650 1150
Wire Wire Line
	8650 1150 9100 1150
Wire Wire Line
	8650 1050 8650 1250
Wire Wire Line
	2000 3400 2200 3400
Connection ~ 2100 3400
Wire Wire Line
	800  1900 800  1850
Wire Wire Line
	1400 3500 1400 3500
Wire Wire Line
	1400 3950 1400 3500
Wire Wire Line
	2100 3950 1400 3950
Wire Wire Line
	2100 3400 2100 3950
Wire Wire Line
	850  3300 1400 3300
Connection ~ 8400 1850
Connection ~ 8150 1850
Wire Wire Line
	8000 2400 8000 1850
Wire Wire Line
	7700 1850 7650 1850
Wire Wire Line
	7050 2400 8000 2400
Wire Wire Line
	7050 1950 7050 2400
Wire Wire Line
	9950 1750 9950 1150
Wire Wire Line
	10150 3400 10150 3500
Wire Wire Line
	800  1850 1400 1850
Wire Wire Line
	2000 1950 2250 1950
Wire Wire Line
	1400 2500 2100 2500
Wire Wire Line
	1400 2050 1400 2500
Connection ~ 2100 1950
Wire Wire Line
	2850 2250 2850 2300
Text GLabel 2450 2300 3    60   Input ~ 0
+1.65V
Wire Wire Line
	2450 2300 2550 2300
Wire Wire Line
	2100 2500 2100 1950
Wire Notes Line
	6900 2500 2200 2500
Wire Notes Line
	6900 950  6900 2500
Wire Notes Line
	6900 950  2200 950 
$Comp
L MCP6004 U2
U 3 1 5A083989
P 10500 1850
F 0 "U2" H 10500 2050 50  0000 L CNN
F 1 "MCP6004" H 10500 1650 50  0000 L CNN
F 2 "" H 10450 1950 50  0001 C CNN
F 3 "" H 10550 2050 50  0001 C CNN
	3    10500 1850
	1    0    0    -1  
$EndComp
$Comp
L GND #PWR028
U 1 1 5A0840A1
P 10400 2150
F 0 "#PWR028" H 10400 1900 50  0001 C CNN
F 1 "GND" H 10400 2000 50  0000 C CNN
F 2 "" H 10400 2150 50  0001 C CNN
F 3 "" H 10400 2150 50  0001 C CNN
	1    10400 2150
	1    0    0    -1  
$EndComp
$Comp
L +3.3V #PWR029
U 1 1 5A08410F
P 10400 1550
F 0 "#PWR029" H 10400 1400 50  0001 C CNN
F 1 "+3.3V" H 10400 1690 50  0000 C CNN
F 2 "" H 10400 1550 50  0001 C CNN
F 3 "" H 10400 1550 50  0001 C CNN
	1    10400 1550
	1    0    0    -1  
$EndComp
Wire Wire Line
	10800 1850 10800 2350
Wire Wire Line
	10800 2350 10200 2350
Wire Wire Line
	10200 2350 10200 1950
Wire Wire Line
	10800 1850 11000 1850
Wire Wire Line
	11000 1850 11000 2500
Wire Wire Line
	11000 2500 9900 2500
Wire Wire Line
	9900 2500 9900 3500
$EndSCHEMATC
